HLTRMakerAlg.MKTool.Serialiser          0   0     DEBUG xAOD::TrigCompositeAuxContainer#remap_EgammaCaloDecisionsAux. Fragment size :380 bytes
HLTRMakerAlg.MKTool.Serialiser          0   0     DEBUG    Fragment size including 128 bytes from 1x DynAux : 508
HLTRMakerAlg.MKTool.Serialiser          0   0     DEBUG xAOD::TrigCompositeContainer#remap_EgammaCaloDecisions Fragment size :180 bytes
HLTRMakerAlg.MKTool.Serialiser          0   0     DEBUG xAOD::TrigEMClusterAuxContainer#HLT_xAOD__TrigEMClusterContainer_L2CaloClustersAux. Fragment size :804 bytes
HLTRMakerAlg.MKTool.Serialiser          0   0     DEBUG    Fragment size including 88 bytes from 1x DynAux : 892
HLTRMakerAlg.MKTool.Serialiser          0   0     DEBUG xAOD::TrigEMClusterContainer#HLT_xAOD__TrigEMClusterContainer_L2CaloClusters Fragment size :204 bytes
HLTRMakerAlg.MKTool.Serialiser          0   0     DEBUG xAOD::TrigElectronAuxContainer#HLT_xAOD__TrigElectronContainer_L2ElectronFexAux. Fragment size :748 bytes
HLTRMakerAlg.MKTool.Serialiser          0   0     DEBUG    Fragment size including 1392 bytes from 14x DynAux : 2140
HLTRMakerAlg.MKTool.Serialiser          0   0     DEBUG xAOD::TrigElectronContainer#HLT_xAOD__TrigElectronContainer_L2ElectronFex Fragment size :196 bytes
HLTRMakerAlg.MKTool.Serialiser          1   0     DEBUG xAOD::TrigCompositeAuxContainer#remap_EgammaCaloDecisionsAux. Fragment size :664 bytes
HLTRMakerAlg.MKTool.Serialiser          1   0     DEBUG    Fragment size including 184 bytes from 1x DynAux : 848
HLTRMakerAlg.MKTool.Serialiser          1   0     DEBUG xAOD::TrigCompositeContainer#remap_EgammaCaloDecisions Fragment size :180 bytes
HLTRMakerAlg.MKTool.Serialiser          1   0     DEBUG xAOD::TrigEMClusterAuxContainer#HLT_xAOD__TrigEMClusterContainer_L2CaloClustersAux. Fragment size :1764 bytes
HLTRMakerAlg.MKTool.Serialiser          1   0     DEBUG    Fragment size including 100 bytes from 1x DynAux : 1864
HLTRMakerAlg.MKTool.Serialiser          1   0     DEBUG xAOD::TrigEMClusterContainer#HLT_xAOD__TrigEMClusterContainer_L2CaloClusters Fragment size :204 bytes
HLTRMakerAlg.MKTool.Serialiser          1   0     DEBUG xAOD::TrigElectronAuxContainer#HLT_xAOD__TrigElectronContainer_L2ElectronFexAux. Fragment size :2864 bytes
HLTRMakerAlg.MKTool.Serialiser          1   0     DEBUG    Fragment size including 2680 bytes from 14x DynAux : 5544
HLTRMakerAlg.MKTool.Serialiser          1   0     DEBUG xAOD::TrigElectronContainer#HLT_xAOD__TrigElectronContainer_L2ElectronFex Fragment size :196 bytes
HLTRMakerAlg.MKTool.Serialiser          2   0     DEBUG xAOD::TrigCompositeAuxContainer#remap_EgammaCaloDecisionsAux. Fragment size :856 bytes
HLTRMakerAlg.MKTool.Serialiser          2   0     DEBUG    Fragment size including 204 bytes from 1x DynAux : 1060
HLTRMakerAlg.MKTool.Serialiser          2   0     DEBUG xAOD::TrigCompositeContainer#remap_EgammaCaloDecisions Fragment size :180 bytes
HLTRMakerAlg.MKTool.Serialiser          2   0     DEBUG xAOD::TrigEMClusterAuxContainer#HLT_xAOD__TrigEMClusterContainer_L2CaloClustersAux. Fragment size :2404 bytes
HLTRMakerAlg.MKTool.Serialiser          2   0     DEBUG    Fragment size including 108 bytes from 1x DynAux : 2512
HLTRMakerAlg.MKTool.Serialiser          2   0     DEBUG xAOD::TrigEMClusterContainer#HLT_xAOD__TrigEMClusterContainer_L2CaloClusters Fragment size :204 bytes
HLTRMakerAlg.MKTool.Serialiser          2   0     DEBUG xAOD::TrigElectronAuxContainer#HLT_xAOD__TrigElectronContainer_L2ElectronFexAux. Fragment size :1760 bytes
HLTRMakerAlg.MKTool.Serialiser          2   0     DEBUG    Fragment size including 2008 bytes from 14x DynAux : 3768
HLTRMakerAlg.MKTool.Serialiser          2   0     DEBUG xAOD::TrigElectronContainer#HLT_xAOD__TrigElectronContainer_L2ElectronFex Fragment size :196 bytes
HLTRMakerAlg.MKTool.Serialiser          3   0     DEBUG xAOD::TrigCompositeAuxContainer#remap_EgammaCaloDecisionsAux. Fragment size :664 bytes
HLTRMakerAlg.MKTool.Serialiser          3   0     DEBUG    Fragment size including 172 bytes from 1x DynAux : 836
HLTRMakerAlg.MKTool.Serialiser          3   0     DEBUG xAOD::TrigCompositeContainer#remap_EgammaCaloDecisions Fragment size :180 bytes
HLTRMakerAlg.MKTool.Serialiser          3   0     DEBUG xAOD::TrigEMClusterAuxContainer#HLT_xAOD__TrigEMClusterContainer_L2CaloClustersAux. Fragment size :1764 bytes
HLTRMakerAlg.MKTool.Serialiser          3   0     DEBUG    Fragment size including 100 bytes from 1x DynAux : 1864
HLTRMakerAlg.MKTool.Serialiser          3   0     DEBUG xAOD::TrigEMClusterContainer#HLT_xAOD__TrigEMClusterContainer_L2CaloClusters Fragment size :204 bytes
HLTRMakerAlg.MKTool.Serialiser          3   0     DEBUG xAOD::TrigElectronAuxContainer#HLT_xAOD__TrigElectronContainer_L2ElectronFexAux. Fragment size :3324 bytes
HLTRMakerAlg.MKTool.Serialiser          3   0     DEBUG    Fragment size including 2960 bytes from 14x DynAux : 6284
HLTRMakerAlg.MKTool.Serialiser          3   0     DEBUG xAOD::TrigElectronContainer#HLT_xAOD__TrigElectronContainer_L2ElectronFex Fragment size :196 bytes
HLTRMakerAlg.MKTool.Serialiser          4   0     DEBUG xAOD::TrigCompositeAuxContainer#remap_EgammaCaloDecisionsAux. Fragment size :476 bytes
HLTRMakerAlg.MKTool.Serialiser          4   0     DEBUG    Fragment size including 152 bytes from 1x DynAux : 628
HLTRMakerAlg.MKTool.Serialiser          4   0     DEBUG xAOD::TrigCompositeContainer#remap_EgammaCaloDecisions Fragment size :180 bytes
HLTRMakerAlg.MKTool.Serialiser          4   0     DEBUG xAOD::TrigEMClusterAuxContainer#HLT_xAOD__TrigEMClusterContainer_L2CaloClustersAux. Fragment size :1124 bytes
HLTRMakerAlg.MKTool.Serialiser          4   0     DEBUG    Fragment size including 92 bytes from 1x DynAux : 1216
HLTRMakerAlg.MKTool.Serialiser          4   0     DEBUG xAOD::TrigEMClusterContainer#HLT_xAOD__TrigEMClusterContainer_L2CaloClusters Fragment size :204 bytes
HLTRMakerAlg.MKTool.Serialiser          4   0     DEBUG xAOD::TrigElectronAuxContainer#HLT_xAOD__TrigElectronContainer_L2ElectronFexAux. Fragment size :1024 bytes
HLTRMakerAlg.MKTool.Serialiser          4   0     DEBUG    Fragment size including 1560 bytes from 14x DynAux : 2584
HLTRMakerAlg.MKTool.Serialiser          4   0     DEBUG xAOD::TrigElectronContainer#HLT_xAOD__TrigElectronContainer_L2ElectronFex Fragment size :196 bytes
HLTRMakerAlg.MKTool.Serialiser          5   0     DEBUG xAOD::TrigCompositeAuxContainer#remap_EgammaCaloDecisionsAux. Fragment size :948 bytes
HLTRMakerAlg.MKTool.Serialiser          5   0     DEBUG    Fragment size including 212 bytes from 1x DynAux : 1160
HLTRMakerAlg.MKTool.Serialiser          5   0     DEBUG xAOD::TrigCompositeContainer#remap_EgammaCaloDecisions Fragment size :180 bytes
HLTRMakerAlg.MKTool.Serialiser          5   0     DEBUG xAOD::TrigEMClusterAuxContainer#HLT_xAOD__TrigEMClusterContainer_L2CaloClustersAux. Fragment size :2724 bytes
HLTRMakerAlg.MKTool.Serialiser          5   0     DEBUG    Fragment size including 112 bytes from 1x DynAux : 2836
HLTRMakerAlg.MKTool.Serialiser          5   0     DEBUG xAOD::TrigEMClusterContainer#HLT_xAOD__TrigEMClusterContainer_L2CaloClusters Fragment size :204 bytes
HLTRMakerAlg.MKTool.Serialiser          5   0     DEBUG xAOD::TrigElectronAuxContainer#HLT_xAOD__TrigElectronContainer_L2ElectronFexAux. Fragment size :4612 bytes
HLTRMakerAlg.MKTool.Serialiser          5   0     DEBUG    Fragment size including 3744 bytes from 14x DynAux : 8356
HLTRMakerAlg.MKTool.Serialiser          5   0     DEBUG xAOD::TrigElectronContainer#HLT_xAOD__TrigElectronContainer_L2ElectronFex Fragment size :196 bytes
HLTRMakerAlg.MKTool.Serialiser          6   0     DEBUG xAOD::TrigCompositeAuxContainer#remap_EgammaCaloDecisionsAux. Fragment size :380 bytes
HLTRMakerAlg.MKTool.Serialiser          6   0     DEBUG    Fragment size including 132 bytes from 1x DynAux : 512
HLTRMakerAlg.MKTool.Serialiser          6   0     DEBUG xAOD::TrigCompositeContainer#remap_EgammaCaloDecisions Fragment size :180 bytes
HLTRMakerAlg.MKTool.Serialiser          6   0     DEBUG xAOD::TrigEMClusterAuxContainer#HLT_xAOD__TrigEMClusterContainer_L2CaloClustersAux. Fragment size :804 bytes
HLTRMakerAlg.MKTool.Serialiser          6   0     DEBUG    Fragment size including 88 bytes from 1x DynAux : 892
HLTRMakerAlg.MKTool.Serialiser          6   0     DEBUG xAOD::TrigEMClusterContainer#HLT_xAOD__TrigEMClusterContainer_L2CaloClusters Fragment size :204 bytes
HLTRMakerAlg.MKTool.Serialiser          6   0     DEBUG xAOD::TrigElectronAuxContainer#HLT_xAOD__TrigElectronContainer_L2ElectronFexAux. Fragment size :1208 bytes
HLTRMakerAlg.MKTool.Serialiser          6   0     DEBUG    Fragment size including 1672 bytes from 14x DynAux : 2880
HLTRMakerAlg.MKTool.Serialiser          6   0     DEBUG xAOD::TrigElectronContainer#HLT_xAOD__TrigElectronContainer_L2ElectronFex Fragment size :196 bytes
HLTRMakerAlg.MKTool.Serialiser          7   0     DEBUG xAOD::TrigCompositeAuxContainer#remap_EgammaCaloDecisionsAux. Fragment size :568 bytes
HLTRMakerAlg.MKTool.Serialiser          7   0     DEBUG    Fragment size including 160 bytes from 1x DynAux : 728
HLTRMakerAlg.MKTool.Serialiser          7   0     DEBUG xAOD::TrigCompositeContainer#remap_EgammaCaloDecisions Fragment size :180 bytes
HLTRMakerAlg.MKTool.Serialiser          7   0     DEBUG xAOD::TrigEMClusterAuxContainer#HLT_xAOD__TrigEMClusterContainer_L2CaloClustersAux. Fragment size :1444 bytes
HLTRMakerAlg.MKTool.Serialiser          7   0     DEBUG    Fragment size including 96 bytes from 1x DynAux : 1540
HLTRMakerAlg.MKTool.Serialiser          7   0     DEBUG xAOD::TrigEMClusterContainer#HLT_xAOD__TrigEMClusterContainer_L2CaloClusters Fragment size :204 bytes
HLTRMakerAlg.MKTool.Serialiser          7   0     DEBUG xAOD::TrigElectronAuxContainer#HLT_xAOD__TrigElectronContainer_L2ElectronFexAux. Fragment size :3048 bytes
HLTRMakerAlg.MKTool.Serialiser          7   0     DEBUG    Fragment size including 2792 bytes from 14x DynAux : 5840
HLTRMakerAlg.MKTool.Serialiser          7   0     DEBUG xAOD::TrigElectronContainer#HLT_xAOD__TrigElectronContainer_L2ElectronFex Fragment size :196 bytes
HLTRMakerAlg.MKTool.Serialiser          8   0     DEBUG xAOD::TrigCompositeAuxContainer#remap_EgammaCaloDecisionsAux. Fragment size :476 bytes
HLTRMakerAlg.MKTool.Serialiser          8   0     DEBUG    Fragment size including 160 bytes from 1x DynAux : 636
HLTRMakerAlg.MKTool.Serialiser          8   0     DEBUG xAOD::TrigCompositeContainer#remap_EgammaCaloDecisions Fragment size :180 bytes
HLTRMakerAlg.MKTool.Serialiser          8   0     DEBUG xAOD::TrigEMClusterAuxContainer#HLT_xAOD__TrigEMClusterContainer_L2CaloClustersAux. Fragment size :1124 bytes
HLTRMakerAlg.MKTool.Serialiser          8   0     DEBUG    Fragment size including 92 bytes from 1x DynAux : 1216
HLTRMakerAlg.MKTool.Serialiser          8   0     DEBUG xAOD::TrigEMClusterContainer#HLT_xAOD__TrigEMClusterContainer_L2CaloClusters Fragment size :204 bytes
HLTRMakerAlg.MKTool.Serialiser          8   0     DEBUG xAOD::TrigElectronAuxContainer#HLT_xAOD__TrigElectronContainer_L2ElectronFexAux. Fragment size :840 bytes
HLTRMakerAlg.MKTool.Serialiser          8   0     DEBUG    Fragment size including 1448 bytes from 14x DynAux : 2288
HLTRMakerAlg.MKTool.Serialiser          8   0     DEBUG xAOD::TrigElectronContainer#HLT_xAOD__TrigElectronContainer_L2ElectronFex Fragment size :196 bytes
HLTRMakerAlg.MKTool.Serialiser          9   0     DEBUG xAOD::TrigCompositeAuxContainer#remap_EgammaCaloDecisionsAux. Fragment size :284 bytes
HLTRMakerAlg.MKTool.Serialiser          9   0     DEBUG xAOD::TrigCompositeContainer#remap_EgammaCaloDecisions Fragment size :180 bytes
HLTRMakerAlg.MKTool.Serialiser          9   0     DEBUG xAOD::TrigEMClusterAuxContainer#HLT_xAOD__TrigEMClusterContainer_L2CaloClustersAux. Fragment size :484 bytes
HLTRMakerAlg.MKTool.Serialiser          9   0     DEBUG xAOD::TrigEMClusterContainer#HLT_xAOD__TrigEMClusterContainer_L2CaloClusters Fragment size :204 bytes
HLTRMakerAlg.MKTool.Serialiser          9   0     DEBUG xAOD::TrigElectronAuxContainer#HLT_xAOD__TrigElectronContainer_L2ElectronFexAux. Fragment size :472 bytes
HLTRMakerAlg.MKTool.Serialiser          9   0     DEBUG xAOD::TrigElectronContainer#HLT_xAOD__TrigElectronContainer_L2ElectronFex Fragment size :196 bytes
HLTRMakerAlg.MKTool.Serialiser          10  0     DEBUG xAOD::TrigCompositeAuxContainer#remap_EgammaCaloDecisionsAux. Fragment size :664 bytes
HLTRMakerAlg.MKTool.Serialiser          10  0     DEBUG    Fragment size including 204 bytes from 1x DynAux : 868
HLTRMakerAlg.MKTool.Serialiser          10  0     DEBUG xAOD::TrigCompositeContainer#remap_EgammaCaloDecisions Fragment size :180 bytes
HLTRMakerAlg.MKTool.Serialiser          10  0     DEBUG xAOD::TrigEMClusterAuxContainer#HLT_xAOD__TrigEMClusterContainer_L2CaloClustersAux. Fragment size :1764 bytes
HLTRMakerAlg.MKTool.Serialiser          10  0     DEBUG    Fragment size including 100 bytes from 1x DynAux : 1864
HLTRMakerAlg.MKTool.Serialiser          10  0     DEBUG xAOD::TrigEMClusterContainer#HLT_xAOD__TrigEMClusterContainer_L2CaloClusters Fragment size :204 bytes
HLTRMakerAlg.MKTool.Serialiser          10  0     DEBUG xAOD::TrigElectronAuxContainer#HLT_xAOD__TrigElectronContainer_L2ElectronFexAux. Fragment size :3508 bytes
HLTRMakerAlg.MKTool.Serialiser          10  0     DEBUG    Fragment size including 3072 bytes from 14x DynAux : 6580
HLTRMakerAlg.MKTool.Serialiser          10  0     DEBUG xAOD::TrigElectronContainer#HLT_xAOD__TrigElectronContainer_L2ElectronFex Fragment size :196 bytes
HLTRMakerAlg.MKTool.Serialiser          11  0     DEBUG xAOD::TrigCompositeAuxContainer#remap_EgammaCaloDecisionsAux. Fragment size :380 bytes
HLTRMakerAlg.MKTool.Serialiser          11  0     DEBUG    Fragment size including 128 bytes from 1x DynAux : 508
HLTRMakerAlg.MKTool.Serialiser          11  0     DEBUG xAOD::TrigCompositeContainer#remap_EgammaCaloDecisions Fragment size :180 bytes
HLTRMakerAlg.MKTool.Serialiser          11  0     DEBUG xAOD::TrigEMClusterAuxContainer#HLT_xAOD__TrigEMClusterContainer_L2CaloClustersAux. Fragment size :804 bytes
HLTRMakerAlg.MKTool.Serialiser          11  0     DEBUG    Fragment size including 88 bytes from 1x DynAux : 892
HLTRMakerAlg.MKTool.Serialiser          11  0     DEBUG xAOD::TrigEMClusterContainer#HLT_xAOD__TrigEMClusterContainer_L2CaloClusters Fragment size :204 bytes
HLTRMakerAlg.MKTool.Serialiser          11  0     DEBUG xAOD::TrigElectronAuxContainer#HLT_xAOD__TrigElectronContainer_L2ElectronFexAux. Fragment size :840 bytes
HLTRMakerAlg.MKTool.Serialiser          11  0     DEBUG    Fragment size including 1448 bytes from 14x DynAux : 2288
HLTRMakerAlg.MKTool.Serialiser          11  0     DEBUG xAOD::TrigElectronContainer#HLT_xAOD__TrigElectronContainer_L2ElectronFex Fragment size :196 bytes
HLTRMakerAlg.MKTool.Serialiser          12  0     DEBUG xAOD::TrigCompositeAuxContainer#remap_EgammaCaloDecisionsAux. Fragment size :1044 bytes
HLTRMakerAlg.MKTool.Serialiser          12  0     DEBUG    Fragment size including 256 bytes from 1x DynAux : 1300
HLTRMakerAlg.MKTool.Serialiser          12  0     DEBUG xAOD::TrigCompositeContainer#remap_EgammaCaloDecisions Fragment size :180 bytes
HLTRMakerAlg.MKTool.Serialiser          12  0     DEBUG xAOD::TrigEMClusterAuxContainer#HLT_xAOD__TrigEMClusterContainer_L2CaloClustersAux. Fragment size :3044 bytes
HLTRMakerAlg.MKTool.Serialiser          12  0     DEBUG    Fragment size including 116 bytes from 1x DynAux : 3160
HLTRMakerAlg.MKTool.Serialiser          12  0     DEBUG xAOD::TrigEMClusterContainer#HLT_xAOD__TrigEMClusterContainer_L2CaloClusters Fragment size :204 bytes
HLTRMakerAlg.MKTool.Serialiser          12  0     DEBUG xAOD::TrigElectronAuxContainer#HLT_xAOD__TrigElectronContainer_L2ElectronFexAux. Fragment size :3876 bytes
HLTRMakerAlg.MKTool.Serialiser          12  0     DEBUG    Fragment size including 3296 bytes from 14x DynAux : 7172
HLTRMakerAlg.MKTool.Serialiser          12  0     DEBUG xAOD::TrigElectronContainer#HLT_xAOD__TrigElectronContainer_L2ElectronFex Fragment size :196 bytes
HLTRMakerAlg.MKTool.Serialiser          13  0     DEBUG xAOD::TrigCompositeAuxContainer#remap_EgammaCaloDecisionsAux. Fragment size :476 bytes
HLTRMakerAlg.MKTool.Serialiser          13  0     DEBUG    Fragment size including 164 bytes from 1x DynAux : 640
HLTRMakerAlg.MKTool.Serialiser          13  0     DEBUG xAOD::TrigCompositeContainer#remap_EgammaCaloDecisions Fragment size :180 bytes
HLTRMakerAlg.MKTool.Serialiser          13  0     DEBUG xAOD::TrigEMClusterAuxContainer#HLT_xAOD__TrigEMClusterContainer_L2CaloClustersAux. Fragment size :1124 bytes
HLTRMakerAlg.MKTool.Serialiser          13  0     DEBUG    Fragment size including 92 bytes from 1x DynAux : 1216
HLTRMakerAlg.MKTool.Serialiser          13  0     DEBUG xAOD::TrigEMClusterContainer#HLT_xAOD__TrigEMClusterContainer_L2CaloClusters Fragment size :204 bytes
HLTRMakerAlg.MKTool.Serialiser          13  0     DEBUG xAOD::TrigElectronAuxContainer#HLT_xAOD__TrigElectronContainer_L2ElectronFexAux. Fragment size :2496 bytes
HLTRMakerAlg.MKTool.Serialiser          13  0     DEBUG    Fragment size including 2456 bytes from 14x DynAux : 4952
HLTRMakerAlg.MKTool.Serialiser          13  0     DEBUG xAOD::TrigElectronContainer#HLT_xAOD__TrigElectronContainer_L2ElectronFex Fragment size :196 bytes
HLTRMakerAlg.MKTool.Serialiser          14  0     DEBUG xAOD::TrigCompositeAuxContainer#remap_EgammaCaloDecisionsAux. Fragment size :380 bytes
HLTRMakerAlg.MKTool.Serialiser          14  0     DEBUG    Fragment size including 132 bytes from 1x DynAux : 512
HLTRMakerAlg.MKTool.Serialiser          14  0     DEBUG xAOD::TrigCompositeContainer#remap_EgammaCaloDecisions Fragment size :180 bytes
HLTRMakerAlg.MKTool.Serialiser          14  0     DEBUG xAOD::TrigEMClusterAuxContainer#HLT_xAOD__TrigEMClusterContainer_L2CaloClustersAux. Fragment size :804 bytes
HLTRMakerAlg.MKTool.Serialiser          14  0     DEBUG    Fragment size including 88 bytes from 1x DynAux : 892
HLTRMakerAlg.MKTool.Serialiser          14  0     DEBUG xAOD::TrigEMClusterContainer#HLT_xAOD__TrigEMClusterContainer_L2CaloClusters Fragment size :204 bytes
HLTRMakerAlg.MKTool.Serialiser          14  0     DEBUG xAOD::TrigElectronAuxContainer#HLT_xAOD__TrigElectronContainer_L2ElectronFexAux. Fragment size :748 bytes
HLTRMakerAlg.MKTool.Serialiser          14  0     DEBUG    Fragment size including 1392 bytes from 14x DynAux : 2140
HLTRMakerAlg.MKTool.Serialiser          14  0     DEBUG xAOD::TrigElectronContainer#HLT_xAOD__TrigElectronContainer_L2ElectronFex Fragment size :196 bytes
HLTRMakerAlg.MKTool.Serialiser          15  0     DEBUG xAOD::TrigCompositeAuxContainer#remap_EgammaCaloDecisionsAux. Fragment size :284 bytes
HLTRMakerAlg.MKTool.Serialiser          15  0     DEBUG xAOD::TrigCompositeContainer#remap_EgammaCaloDecisions Fragment size :180 bytes
HLTRMakerAlg.MKTool.Serialiser          15  0     DEBUG xAOD::TrigEMClusterAuxContainer#HLT_xAOD__TrigEMClusterContainer_L2CaloClustersAux. Fragment size :484 bytes
HLTRMakerAlg.MKTool.Serialiser          15  0     DEBUG xAOD::TrigEMClusterContainer#HLT_xAOD__TrigEMClusterContainer_L2CaloClusters Fragment size :204 bytes
HLTRMakerAlg.MKTool.Serialiser          15  0     DEBUG xAOD::TrigElectronAuxContainer#HLT_xAOD__TrigElectronContainer_L2ElectronFexAux. Fragment size :472 bytes
HLTRMakerAlg.MKTool.Serialiser          15  0     DEBUG xAOD::TrigElectronContainer#HLT_xAOD__TrigElectronContainer_L2ElectronFex Fragment size :196 bytes
HLTRMakerAlg.MKTool.Serialiser          16  0     DEBUG xAOD::TrigCompositeAuxContainer#remap_EgammaCaloDecisionsAux. Fragment size :380 bytes
HLTRMakerAlg.MKTool.Serialiser          16  0     DEBUG    Fragment size including 124 bytes from 1x DynAux : 504
HLTRMakerAlg.MKTool.Serialiser          16  0     DEBUG xAOD::TrigCompositeContainer#remap_EgammaCaloDecisions Fragment size :180 bytes
HLTRMakerAlg.MKTool.Serialiser          16  0     DEBUG xAOD::TrigEMClusterAuxContainer#HLT_xAOD__TrigEMClusterContainer_L2CaloClustersAux. Fragment size :804 bytes
HLTRMakerAlg.MKTool.Serialiser          16  0     DEBUG    Fragment size including 88 bytes from 1x DynAux : 892
HLTRMakerAlg.MKTool.Serialiser          16  0     DEBUG xAOD::TrigEMClusterContainer#HLT_xAOD__TrigEMClusterContainer_L2CaloClusters Fragment size :204 bytes
HLTRMakerAlg.MKTool.Serialiser          16  0     DEBUG xAOD::TrigElectronAuxContainer#HLT_xAOD__TrigElectronContainer_L2ElectronFexAux. Fragment size :472 bytes
HLTRMakerAlg.MKTool.Serialiser          16  0     DEBUG xAOD::TrigElectronContainer#HLT_xAOD__TrigElectronContainer_L2ElectronFex Fragment size :196 bytes
HLTRMakerAlg.MKTool.Serialiser          17  0     DEBUG xAOD::TrigCompositeAuxContainer#remap_EgammaCaloDecisionsAux. Fragment size :476 bytes
HLTRMakerAlg.MKTool.Serialiser          17  0     DEBUG    Fragment size including 164 bytes from 1x DynAux : 640
HLTRMakerAlg.MKTool.Serialiser          17  0     DEBUG xAOD::TrigCompositeContainer#remap_EgammaCaloDecisions Fragment size :180 bytes
HLTRMakerAlg.MKTool.Serialiser          17  0     DEBUG xAOD::TrigEMClusterAuxContainer#HLT_xAOD__TrigEMClusterContainer_L2CaloClustersAux. Fragment size :1124 bytes
HLTRMakerAlg.MKTool.Serialiser          17  0     DEBUG    Fragment size including 92 bytes from 1x DynAux : 1216
HLTRMakerAlg.MKTool.Serialiser          17  0     DEBUG xAOD::TrigEMClusterContainer#HLT_xAOD__TrigEMClusterContainer_L2CaloClusters Fragment size :204 bytes
HLTRMakerAlg.MKTool.Serialiser          17  0     DEBUG xAOD::TrigElectronAuxContainer#HLT_xAOD__TrigElectronContainer_L2ElectronFexAux. Fragment size :1392 bytes
HLTRMakerAlg.MKTool.Serialiser          17  0     DEBUG    Fragment size including 1784 bytes from 14x DynAux : 3176
HLTRMakerAlg.MKTool.Serialiser          17  0     DEBUG xAOD::TrigElectronContainer#HLT_xAOD__TrigElectronContainer_L2ElectronFex Fragment size :196 bytes
HLTRMakerAlg.MKTool.Serialiser          18  0     DEBUG xAOD::TrigCompositeAuxContainer#remap_EgammaCaloDecisionsAux. Fragment size :476 bytes
HLTRMakerAlg.MKTool.Serialiser          18  0     DEBUG    Fragment size including 160 bytes from 1x DynAux : 636
HLTRMakerAlg.MKTool.Serialiser          18  0     DEBUG xAOD::TrigCompositeContainer#remap_EgammaCaloDecisions Fragment size :180 bytes
HLTRMakerAlg.MKTool.Serialiser          18  0     DEBUG xAOD::TrigEMClusterAuxContainer#HLT_xAOD__TrigEMClusterContainer_L2CaloClustersAux. Fragment size :1124 bytes
HLTRMakerAlg.MKTool.Serialiser          18  0     DEBUG    Fragment size including 92 bytes from 1x DynAux : 1216
HLTRMakerAlg.MKTool.Serialiser          18  0     DEBUG xAOD::TrigEMClusterContainer#HLT_xAOD__TrigEMClusterContainer_L2CaloClusters Fragment size :204 bytes
HLTRMakerAlg.MKTool.Serialiser          18  0     DEBUG xAOD::TrigElectronAuxContainer#HLT_xAOD__TrigElectronContainer_L2ElectronFexAux. Fragment size :840 bytes
HLTRMakerAlg.MKTool.Serialiser          18  0     DEBUG    Fragment size including 1448 bytes from 14x DynAux : 2288
HLTRMakerAlg.MKTool.Serialiser          18  0     DEBUG xAOD::TrigElectronContainer#HLT_xAOD__TrigElectronContainer_L2ElectronFex Fragment size :196 bytes
HLTRMakerAlg.MKTool.Serialiser          19  0     DEBUG xAOD::TrigCompositeAuxContainer#remap_EgammaCaloDecisionsAux. Fragment size :568 bytes
HLTRMakerAlg.MKTool.Serialiser          19  0     DEBUG    Fragment size including 152 bytes from 1x DynAux : 720
HLTRMakerAlg.MKTool.Serialiser          19  0     DEBUG xAOD::TrigCompositeContainer#remap_EgammaCaloDecisions Fragment size :180 bytes
HLTRMakerAlg.MKTool.Serialiser          19  0     DEBUG xAOD::TrigEMClusterAuxContainer#HLT_xAOD__TrigEMClusterContainer_L2CaloClustersAux. Fragment size :1444 bytes
HLTRMakerAlg.MKTool.Serialiser          19  0     DEBUG    Fragment size including 96 bytes from 1x DynAux : 1540
HLTRMakerAlg.MKTool.Serialiser          19  0     DEBUG xAOD::TrigEMClusterContainer#HLT_xAOD__TrigEMClusterContainer_L2CaloClusters Fragment size :204 bytes
HLTRMakerAlg.MKTool.Serialiser          19  0     DEBUG xAOD::TrigElectronAuxContainer#HLT_xAOD__TrigElectronContainer_L2ElectronFexAux. Fragment size :3324 bytes
HLTRMakerAlg.MKTool.Serialiser          19  0     DEBUG    Fragment size including 2960 bytes from 14x DynAux : 6284
HLTRMakerAlg.MKTool.Serialiser          19  0     DEBUG xAOD::TrigElectronContainer#HLT_xAOD__TrigElectronContainer_L2ElectronFex Fragment size :196 bytes
TrigSignatureMoniMT                                INFO HLT_2e3_etcut                 20        10        6         5         5         
TrigSignatureMoniMT                                INFO HLT_2e3_etcut decisions                           16        83        
TrigSignatureMoniMT                                INFO HLT_e3_e5_etcut               20        20        12        10        10        
TrigSignatureMoniMT                                INFO HLT_e3_e5_etcut decisions                         46        215       
TrigSignatureMoniMT                                INFO HLT_e3_etcut                  20        9         8         8         8         
TrigSignatureMoniMT                                INFO HLT_e3_etcut decisions                            22        107       
TrigSignatureMoniMT                                INFO HLT_e5_etcut                  20        20        17        17        17        
TrigSignatureMoniMT                                INFO HLT_e5_etcut decisions                            52        255       
TrigSignatureMoniMT                                INFO HLT_e7_etcut                  20        20        11        11        11        
TrigSignatureMoniMT                                INFO HLT_e7_etcut decisions                            17        119       
